{
  "openapi": "3.0.0",
  "info": {
    "title": "代码大数据平台API文档",
    "description": "基础服务相关api",
    "version": "0.1.0"
  },
  "servers": [
    {
      "url": "http://10.176.34.85:8102",
      "description": "许文滔"
    }
  ],
  "tags": [
    {
      "name": "repository-service"
    },
    {
      "name": "commit-service"
    },
    {
      "name": "code-service"
    }
  ],
  "paths": {
    "/repository": {
      "post": {
        "tags": [
          "repository-service"
        ],
        "operationId": "get_repo_info",
        "summary": "代码库仓库查询接口",
        "description": "对给定query条件和字段返回查询结果",
        "requestBody": {
          "description": "查询条件",
          "required": true,
          "content": {
            "application/json": {
              "schema": {
                "$ref": "#/components/schemas/query_arg"
              }
            }
          }
        },
        "responses": {
          "200": {
            "$ref": "#/components/responses/repository_response_200"
          },
          "500": {
            "$ref": "#/components/responses/FailedOrError"
          }
        }
      }
    },
    "/repository/{repo_id}": {
      "get": {
        "tags": [
          "repository-service"
        ],
        "operationId": "get_specify_repo_info",
        "summary": "指定代码库仓库信息查询接口",
        "description": "对给定repo_id信息，返回代码库仓库信息的查询结果",
        "parameters": [
          {
            "name": "repo_id",
            "in": "path",
            "description": "repository的uuid",
            "required": true,
            "schema": {
              "type": "string"
            }
          }
        ],
        "responses": {
          "200": {
            "$ref": "#/components/responses/specify_repository_response_200"
          },
          "500": {
            "$ref": "#/components/responses/FailedOrError"
          }
        }
      }
    },
    "/repository/repository_year": {
      "get": {
        "tags": [
          "repository-service"
        ],
        "operationId": "repository_year",
        "summary": "代码仓库的年龄查询接口",
        "description": "对给定repo_id信息和end_date信息，返回代码库仓库信息的查询结果",
        "parameters": [
          {
            "name": "repo_id",
            "in": "query",
            "description": "repository的uuid值",
            "required": true,
            "schema": {
              "type": "string"
            }
          },
          {
            "name": "end_date",
            "in": "query",
            "description": "end_date日期（格式例如:2020-08-05）",
            "required": true,
            "schema": {
              "type": "string"
            }
          }
        ],
        "responses": {
          "200": {
            "$ref": "#/components/responses/repository_year_response_200"
          },
          "500": {
            "$ref": "#/components/responses/FailedOrError"
          }
        }
      }
    },
    "/repository/number-of-files": {
      "get": {
        "tags": [
          "repository-service"
        ],
        "operationId": "get_number-of-files",
        "summary": "代码仓库文件数统计查询接口",
        "description": "对给定query条件和字段返回查询结果",
        "parameters": [
          {
            "name": "repo_id",
            "in": "query",
            "description": "repository的uuid",
            "required": true,
            "schema": {
              "type": "string"
            }
          }
        ],
        "responses": {
          "200": {
            "$ref": "#/components/responses/files_response_200"
          },
          "500": {
            "$ref": "#/components/responses/FailedOrError"
          }
        }
      }
    },
    "/commit": {
      "get": {
        "tags": [
          "commit-service"
        ],
        "operationId": "get_commit",
        "summary": "查询commit",
        "description": "给定repo_id和page参数，返回对应的commit列表",
        "parameters": [
          {
            "name": "repo_id",
            "in": "query",
            "description": "repository的uuid",
            "required": true,
            "schema": {
              "type": "string"
            }
          },
          {
            "name": "page",
            "in": "query",
            "description": "分页参数",
            "required": false,
            "schema": {
              "type": "integer",
              "format": "int32",
              "default": 1
            }
          },
          {
            "name": "per_page",
            "in": "query",
            "description": "每页偏移量",
            "required": false,
            "schema": {
              "type": "integer",
              "format": "int32",
              "default": 50
            }
          },
          {
            "name": "is_whole",
            "in": "query",
            "description": "如果为真返回该repo的所有commit",
            "required": false,
            "schema": {
              "type": "boolean",
              "example": true,
              "default": false
            }
          }
        ],
        "responses": {
          "200": {
            "$ref": "#/components/responses/commit_response_200"
          },
          "500": {
            "$ref": "#/components/responses/FailedOrError"
          }
        }
      }
    },
    "/commit/one-day": {
      "get": {
        "tags": [
          "commit-service"
        ],
        "operationId": "get_",
        "summary": "查询某天的commit信息",
        "description": "给定repo_id和commit_date，返回当天的commit信息",
        "parameters": [
          {
            "name": "repo_id",
            "in": "query",
            "description": "repo_id",
            "required": true,
            "schema": {
              "type": "string"
            }
          },
          {
            "name": "commit_time",
            "in": "query",
            "description": "commit_time(格式例如：2020-09-29）",
            "required": true,
            "schema": {
              "type": "string"
            }
          }
        ],
        "responses": {
          "200": {
            "$ref": "#/components/responses/one-day_response_200"
          },
          "500": {
            "$ref": "#/components/responses/FailedOrError"
          }
        }
      }
    },
    "/commit/{commit_id}": {
      "get": {
        "tags": [
          "commit-service"
        ],
        "operationId": "get_one_commit",
        "summary": "查询一条commit的信息",
        "description": "给定commit sha值，返回该条commit的信息",
        "parameters": [
          {
            "name": "commit_id",
            "in": "path",
            "description": "commit的sha值",
            "required": true,
            "schema": {
              "type": "string"
            }
          }
        ],
        "responses": {
          "200": {
            "$ref": "#/components/responses/commit_response_200"
          },
          "500": {
            "$ref": "#/components/responses/FailedOrError"
          }
        }
      }
    },
    "/commit/developer-lists-by-commits": {
      "post": {
        "tags": [
          "commit-service"
        ],
        "operationId": "get_developer_email_by_commit",
        "summary": "查询开发者信息",
        "requestBody": {
          "description": "由commit sha值得到开发者的信息（现在只有邮箱）",
          "required": true,
          "content": {
            "multipart/form-data": {
              "schema": {
                "$ref": "#/components/schemas/commit_id_list"
              }
            }
          }
        },
        "responses": {
          "200": {
            "$ref": "#/components/responses/commit_developer_list_response_200"
          },
          "500": {
            "$ref": "#/components/responses/FailedOrError"
          }
        }
      }
    },
    "/commit/commit-time": {
      "get": {
        "tags": [
          "commit-service"
        ],
        "operationId": "commit_time",
        "summary": "查询一条commit的时间",
        "description": "给定commit sha值，返回该条commit的提交时间",
        "parameters": [
          {
            "name": "commit_id",
            "in": "query",
            "description": "commit的sha值",
            "required": true,
            "schema": {
              "type": "string"
            }
          },
          {
            "name": "repo_id",
            "in": "query",
            "description": "repository的uuid值",
            "required": true,
            "schema": {
              "type": "string"
            }
          }
        ],
        "responses": {
          "200": {
            "$ref": "#/components/responses/commit_time_response_200"
          },
          "500": {
            "$ref": "#/components/responses/FailedOrError"
          }
        }
      }
    },
    "/commit/latest-commit-time": {
      "get": {
        "tags": [
          "commit-service"
        ],
        "operationId": "get_latest_commit_time",
        "summary": "查询某个repo的最新commit的时间",
        "description": "给定repo id值，返回最新commit的时间",
        "parameters": [
          {
            "name": "repo_id",
            "in": "query",
            "description": "repository的uuid值",
            "required": true,
            "schema": {
              "type": "string"
            }
          }
        ],
        "responses": {
          "200": {
            "$ref": "#/components/responses/commit_time_response_200"
          },
          "500": {
            "$ref": "#/components/responses/FailedOrError"
          }
        }
      }
    },
    "/commit/distance-to-latest-commit": {
      "get": {
        "tags": [
          "commit-service"
        ],
        "operationId": "get_distance-to-latest-commit",
        "summary": "查询某个commit之后的commit数",
        "description": "给定repo id值和commit id值，返回之后的commit数",
        "parameters": [
          {
            "name": "repo_id",
            "in": "query",
            "description": "repository的uuid值",
            "required": true,
            "schema": {
              "type": "string"
            }
          },
          {
            "name": "commit_id",
            "in": "query",
            "description": "commit的sha值",
            "required": true,
            "schema": {
              "type": "string"
            }
          }
        ],
        "responses": {
          "200": {
            "$ref": "#/components/responses/distance-to-latest-commit_response_200"
          },
          "500": {
            "$ref": "#/components/responses/FailedOrError"
          }
        }
      }
    },
    "/commit/first-commit": {
      "get": {
        "tags": [
          "commit-service"
        ],
        "operationId": "get_first-commit",
        "summary": "查询开发人员的第一次提交时间",
        "description": "给定author值，返回该开发人员的第一次提交时间",
        "parameters": [
          {
            "name": "author",
            "in": "query",
            "description": "author",
            "required": true,
            "schema": {
              "type": "string"
            }
          }
        ],
        "responses": {
          "200": {
            "$ref": "#/components/responses/first-commit_response_200"
          },
          "500": {
            "$ref": "#/components/responses/FailedOrError"
          }
        }
      }
    },
    "/commit/developer": {
      "get": {
        "tags": [
          "commit-service"
        ],
        "operationId": "get_developer",
        "summary": "查询所有的开发人员名单",
        "description": "返回所有的开发人员名单",
        "responses": {
          "200": {
            "$ref": "#/components/responses/developer_response_200"
          },
          "500": {
            "$ref": "#/components/responses/FailedOrError"
          }
        }
      }
    },
    "/code-service": {
      "get": {
        "tags": [
          "code-service"
        ],
        "summary": "申请访问指定commit对应的代码库",
        "operationId": "get_root_path",
        "description": "对给定commit_id和repo_id返回代码库的根路径",
        "parameters": [
          {
            "name": "repo_id",
            "in": "query",
            "description": "repository的uuid",
            "required": true,
            "schema": {
              "type": "string"
            }
          },
          {
            "name": "commit_id",
            "in": "query",
            "description": "commit的sha值",
            "required": true,
            "schema": {
              "type": "string"
            }
          }
        ],
        "responses": {
          "200": {
            "$ref": "#/components/responses/code_service_repsonse_200"
          },
          "500": {
            "$ref": "#/components/responses/FailedOrError"
          }
        }
      }
    },
    "/code-service/free": {
      "get": {
        "tags": [
          "code-service"
        ],
        "operationId": "free_resource",
        "summary": "与code-service成对使用，用来释放代码库的占用权限",
        "description": "指定repository的根目录和repo_id，释放其占用权限",
        "parameters": [
          {
            "name": "repo_id",
            "in": "query",
            "description": "repository的uuid",
            "required": true,
            "schema": {
              "type": "string"
            }
          },
          {
            "name": "path",
            "in": "query",
            "description": "所占用repository的根目录",
            "required": true,
            "schema": {
              "type": "string"
            }
          }
        ],
        "responses": {
          "200": {
            "$ref": "#/components/responses/code_service_free_repsonse_200"
          },
          "500": {
            "$ref": "#/components/responses/FailedOrError"
          }
        }
      }
    },
    "/code-service/release-generator": {
      "post": {
        "tags": [
          "code-service"
        ],
        "operationId": "release_generator",
        "summary": "生成release zip包",
        "description": "对指定的repo_list生成其release的zip包",
        "requestBody": {
          "description": "指定的repo_list的根路径列表",
          "required": true,
          "content": {
            "application/json": {
              "schema": {
                "$ref": "#/components/schemas/release_generator_arg"
              }
            }
          }
        },
        "responses": {
          "200": {
            "$ref": "#/components/responses/release_generator_repsonse_200"
          },
          "500": {
            "$ref": "#/components/responses/FailedOrError"
          }
        }
      }
    },
    "/user": {
      "get": {
        "tags": [
          "user-service"
        ],
        "operationId": "get_userId",
        "summary": "查询username对应的id",
        "description": "给定username和source参数，返回对应的user的id",
        "parameters": [
          {
            "name": "username",
            "in": "query",
            "description": "user的名字",
            "required": true,
            "schema": {
              "type": "string"
            }
          },
          {
            "name": "source",
            "in": "query",
            "description": "该user的来源（github或者gitlab）",
            "required": true,
            "schema": {
              "type": "string"
            }
          }
        ],
        "responses": {
          "200": {
            "$ref": "#/components/responses/commit_response_200"
          },
          "500": {
            "$ref": "#/components/responses/FailedOrError"
          }
        }
      }
    }
  },
  "components": {
    "schemas": {
      "query_arg": {
        "required": [
          "query"
        ],
        "type": "object",
        "properties": {
          "query": {
            "type": "string",
            "description": "sql语句 query条件"
          },
          "page": {
            "type": "integer",
            "format": "int32"
          },
          "per_page": {
            "type": "integer",
            "format": "int32"
          },
          "field_list": {
            "type": "array",
            "description": "指定返回的repo所需要的字段",
            "items": {
              "type": "string"
            }
          }
        },
        "example": {
          "query": "stars_count > 50 and pushed_at > '2010-01-01 00:00:00'",
          "page": 1,
          "per_page": 2,
          "field_list": [
            "uuid",
            "local_addr",
            "stars_count"
          ]
        }
      },
      "specify_repository_response": {
        "type": "object",
        "properties": {
          "data": {
            "type": "object",
            "properties": {
              "status": {
                "type": "string"
              },
              "content": {
                "type": "string"
              }
            }
          }
        },
        "example": {
          "data": {
            "branch": "zhonghui20191012",
            "description": null,
            "is_private": false,
            "language": "Java",
            "local_addr": "/home/fdse/codeWisdom/repository/repo/gitlab/jie/IssueTracker-Master-zhonghui20191012",
            "repository_id": null,
            "url": "http://fdse.gitlab.com/jie/IssueTracker-Master",
            "uuid": "3ecf804e-0ad6-11eb-bb79-5b7ba969027e"
          }
        }
      },
      "repository_year_response": {
        "type": "object",
        "properties": {
          "data": {
            "type": "object",
            "properties": {
              "status": {
                "type": "string"
              },
              "content": {
                "type": "string"
              }
            }
          }
        },
        "example": {
          "data": {
            "commit_time": 732
          }
        }
      },
      "files_response": {
        "type": "object",
        "properties": {
          "data": {
            "type": "object",
            "properties": {
              "status": {
                "type": "string"
              },
              "content": {
                "type": "string"
              }
            }
          }
        },
        "example": {
          "data": {
            ".class": 431,
            ".conf": 1,
            ".env": 1,
            ".gitignore": 9,
            ".idx": 1,
            ".jar": 1,
            ".java": 373,
            ".jpg": 2,
            ".log": 3,
            ".lst": 22,
            ".lua": 8,
            ".md": 3,
            ".pack": 1,
            ".pb": 286,
            ".png": 1,
            ".properties": 72,
            ".py": 15,
            ".sample": 9,
            ".sh": 15,
            ".sonar_lock": 1,
            ".sql": 2,
            ".swagger-codegen-ignore": 1,
            ".txt": 2,
            ".xls": 2,
            ".xml": 82,
            ".yaml": 13,
            "others": 21
          }
        }
      },
      "one-day_response": {
        "type": "object",
        "properties": {
          "data": {
            "type": "object",
            "properties": {
              "status": {
                "type": "string"
              },
              "content": {
                "type": "string"
              }
            }
          }
        },
        "example": {
          "data": [
            {
              "commit_id": "a244011d2003db92093739744a4349b7e6750e8e",
              "commit_time": "2020-09-29 06:55:41",
              "developer": "Zrq-Q",
              "developer_email": "yian02250316@163.com",
              "message": "update responsebean",
              "repo_id": "3ecf804e-0ad6-11eb-bb79-5b7ba969027e",
              "uuid": "77358f2e-0ba2-11eb-ba5c-d9555384b8ba"
            },
            {
              "commit_id": "4b274258ac04fdf46a3c7365cb4168eb43304e32",
              "commit_time": "2020-09-29 06:49:09",
              "developer": "Zrq-Q",
              "developer_email": "yian02250316@163.com",
              "message": "add accountRight API",
              "repo_id": "3ecf804e-0ad6-11eb-bb79-5b7ba969027e",
              "uuid": "77360e18-0ba2-11eb-ba5c-d9555384b8ba"
            }
          ]
        }
      },
      "release_generator_arg": {
        "type": "object",
        "properties": {
          "repo_list": {
            "type": "array",
            "items": {
              "type": "string"
            },
            "description": "repo的uuid list"
          }
        }
      },
      "commit_id_list": {
        "type": "object",
        "properties": {
          "key_set": {
            "type": "array",
            "items": {
              "type": "string"
            }
          }
        }
      },
      "repository_response": {
        "type": "object",
        "properties": {
          "data": {
            "type": "object",
            "properties": {
              "uuid": {
                "type": "string",
                "description": "repo的uuid"
              },
              "id": {
                "type": "integer",
                "format": "int32"
              },
              "repos_name": {
                "type": "string"
              },
              "local_addr": {
                "type": "string",
                "description": "repo的本地存储地址"
              },
              "stars_count": {
                "type": "integer",
                "format": "int32"
              },
              "created_at": {
                "type": "string",
                "format": "date-time"
              },
              "updated_at": {
                "type": "string",
                "format": "date-time"
              }
            }
          },
          "count": {
            "type": "integer",
            "format": "int64",
            "description": "查询结果个数"
          }
        },
        "example": {
          "count": 9157,
          "data": [
            {
              "created_at": "2008-07-26 17:22:13",
              "id": 8,
              "local_addr": "/home/fdse/data/repo/github/rictic/code_swarm",
              "repos_name": "code_swarm",
              "stars_count": 336,
              "updated_at": "2019-04-12 18:27:47",
              "uuid": "46eeed7c-c6dd-4aeb-8c57-490b1d750d0e"
            },
            {
              "created_at": "2008-03-01 05:22:38",
              "id": 33,
              "local_addr": "/home/fdse/data/repo/github/dustin/java-memcached-client",
              "repos_name": "java-memcached-client",
              "stars_count": 467,
              "updated_at": "2019-04-06 03:05:48",
              "uuid": "f83e5862-7816-4271-88a9-c2e842edc8cc"
            }
          ]
        }
      },
      "commit_response": {
        "type": "object",
        "properties": {
          "data": {
            "type": "object",
            "properties": {
              "uuid": {
                "type": "string",
                "description": "commit的uuid"
              },
              "commit_id": {
                "type": "string",
                "description": "commit的sha值"
              },
              "message": {
                "type": "string"
              },
              "developer": {
                "type": "string",
                "description": "提交者邮箱"
              },
              "commit_time": {
                "type": "string",
                "format": "date"
              },
              "repo_id": {
                "type": "string",
                "description": "该commit所属repo的uuid"
              }
            }
          }
        }
      },
      "commit_developer_list_response": {
        "type": "object",
        "properties": {
          "data": {
            "type": "array",
            "items": {
              "type": "object",
              "additionalProperties": {
                "type": "string"
              }
            }
          },
          "status": {
            "type": "string"
          }
        },
        "example": {
          "data": [
            {
              "ada884e52ceb8713327e4a36a7a147c0e783d099": "k8s-ci-robot@users.noreply.github.com"
            },
            {
              "e0cd19bc52dc4763f2059944b409c998c0e60af5": "tatu.saloranta@iki.fi"
            }
          ],
          "status": "Successful"
        }
      },
      "commit_time_response": {
        "type": "object",
        "properties": {
          "data": {
            "type": "object",
            "properties": {
              "commit_time": {
                "type": "string",
                "format": "date"
              }
            }
          }
        }
      },
      "distance-to-latest-commit_response": {
        "type": "object",
        "properties": {
          "data": {
            "type": "object",
            "properties": {
              "status": {
                "type": "string"
              },
              "content": {
                "type": "string"
              }
            }
          }
        },
        "example": {
          "data": {
            "num": 2,
            "status": "Successful"
          }
        }
      },
      "first-commit_response": {
        "type": "object",
        "properties": {
          "data": {
            "type": "object",
            "properties": {
              "status": {
                "type": "string"
              },
              "content": {
                "type": "string"
              }
            }
          }
        },
        "example": {
          "data": {
            "repos": [
              {
                "first_commit_time": "2018-08-06 14:23:08",
                "repo_id": "3ecf804e-0ad6-11eb-bb79-5b7ba969027e"
              }
            ],
            "repos_summary": {
              "first_commit_time_summary": "2018-08-06 14:23:08"
            },
            "status": "Successful"
          }
        }
      },
      "developer_response": {
        "type": "object",
        "properties": {
          "data": {
            "type": "object",
            "properties": {
              "status": {
                "type": "string"
              },
              "content": {
                "type": "string"
              }
            }
          }
        },
        "example": {
          "data": {
            "developer": [
              "pdtx",
              "Zrq-Q",
              "ted_mosby",
              "jfstylejf",
              "zwj",
              "bfkh",
              "linwangzai",
              "upsnailNostalgia",
              "SEzhangyuhui",
              "XiaoMi",
              "SouthStreet",
              "monity",
              "mayuyukirinn",
              "niko",
              "zhan nanjie",
              "linshengwang",
              "mayuyukirin",
              "wzy",
              "unknown",
              "liushuang",
              "huage1994",
              "raguel",
              "valysin"
            ],
            "status": "Successful"
          }
        }
      },
      "code_service_repsonse": {
        "type": "object",
        "properties": {
          "data": {
            "type": "object",
            "properties": {
              "status": {
                "type": "string"
              },
              "content": {
                "type": "string"
              }
            }
          }
        },
        "example": {
          "data": {
            "status": "Successful",
            "content": "/home/fdse/user/iussueTracker/repo/github/zxing/zxing-master"
          }
        }
      },
      "code_service_free_repsonse": {
        "type": "object",
        "properties": {
          "data": {
            "type": "object",
            "properties": {
              "status": {
                "type": "string"
              }
            }
          }
        }
      },
      "release_generator_repsonse": {
        "type": "object",
        "properties": {
          "data": {
            "type": "object",
            "properties": {
              "status": {
                "type": "string"
              }
            }
          }
        }
      },
      "error_response": {
        "type": "object",
        "properties": {
          "message": {
            "type": "string",
            "description": "失败原因"
          }
        }
      }
    },
    "responses": {
      "FailedOrError": {
        "description": "查询失败或异常",
        "content": {
          "application/json": {
            "schema": {
              "$ref": "#/components/schemas/error_response"
            }
          }
        }
      },
      "repository_response_200": {
        "description": "OK",
        "content": {
          "application/json": {
            "schema": {
              "$ref": "#/components/schemas/repository_response"
            }
          }
        }
      },
      "specify_repository_response_200": {
        "description": "OK",
        "content": {
          "application/json": {
            "schema": {
              "$ref": "#/components/schemas/specify_repository_response"
            }
          }
        }
      },
      "repository_year_response_200": {
        "description": "OK",
        "content": {
          "application/json": {
            "schema": {
              "$ref": "#/components/schemas/repository_year_response"
            }
          }
        }
      },
      "files_response_200": {
        "description": "OK",
        "content": {
          "application/json": {
            "schema": {
              "$ref": "#/components/schemas/files_response"
            }
          }
        }
      },
      "commit_response_200": {
        "description": "OK",
        "content": {
          "application/json": {
            "schema": {
              "$ref": "#/components/schemas/commit_response"
            }
          }
        }
      },
      "one-day_response_200": {
        "description": "OK",
        "content": {
          "application/json": {
            "schema": {
              "$ref": "#/components/schemas/one-day_response"
            }
          }
        }
      },
      "commit_developer_list_response_200": {
        "description": "OK",
        "content": {
          "application/json": {
            "schema": {
              "$ref": "#/components/schemas/commit_developer_list_response"
            }
          }
        }
      },
      "commit_time_response_200": {
        "description": "OK",
        "content": {
          "application/json": {
            "schema": {
              "$ref": "#/components/schemas/commit_time_response"
            }
          }
        }
      },
      "distance-to-latest-commit_response_200": {
        "description": "OK",
        "content": {
          "application/json": {
            "schema": {
              "$ref": "#/components/schemas/distance-to-latest-commit_response"
            }
          }
        }
      },
      "first-commit_response_200": {
        "description": "OK",
        "content": {
          "application/json": {
            "schema": {
              "$ref": "#/components/schemas/first-commit_response"
            }
          }
        }
      },
      "developer_response_200": {
        "description": "OK",
        "content": {
          "application/json": {
            "schema": {
              "$ref": "#/components/schemas/developer_response"
            }
          }
        }
      },
      "code_service_repsonse_200": {
        "description": "OK",
        "content": {
          "application/json": {
            "schema": {
              "$ref": "#/components/schemas/code_service_repsonse"
            }
          }
        }
      },
      "code_service_free_repsonse_200": {
        "description": "OK",
        "content": {
          "application/json": {
            "schema": {
              "$ref": "#/components/schemas/code_service_free_repsonse"
            }
          }
        }
      },
      "release_generator_repsonse_200": {
        "description": "OK",
        "content": {
          "application/json": {
            "schema": {
              "$ref": "#/components/schemas/release_generator_repsonse"
            }
          }
        }
      }
    }
  }
}